info face="Arcadepix" size=15 bold=1 italic=0 charset="" unicode=0 stretchH=100 smooth=1 aa=1 padding=2,2,2,2 spacing=0,0
common lineHeight=19 base=12 scaleW=512 scaleH=512 pages=1 packed=0
page id=0 file="pixel.png"
chars count=92
char id=32   x=0     y=0     width=0     height=0     xoffset=0     yoffset=12    xadvance=16     page=0  chnl=0 
char id=106   x=0     y=0     width=12     height=21     xoffset=-1     yoffset=-3    xadvance=13     page=0  chnl=0 
char id=63   x=12     y=0     width=17     height=20     xoffset=-2     yoffset=-2    xadvance=17     page=0  chnl=0 
char id=174   x=29     y=0     width=17     height=19     xoffset=-1     yoffset=-2    xadvance=19     page=0  chnl=0 
char id=169   x=46     y=0     width=17     height=19     xoffset=-1     yoffset=-2    xadvance=19     page=0  chnl=0 
char id=64   x=63     y=0     width=17     height=19     xoffset=-1     yoffset=-2    xadvance=19     page=0  chnl=0 
char id=127   x=80     y=0     width=12     height=18     xoffset=-1     yoffset=-3    xadvance=13     page=0  chnl=0 
char id=121   x=92     y=0     width=15     height=18     xoffset=-1     yoffset=0    xadvance=16     page=0  chnl=0 
char id=113   x=107     y=0     width=15     height=18     xoffset=-1     yoffset=0    xadvance=16     page=0  chnl=0 
char id=112   x=122     y=0     width=15     height=18     xoffset=-1     yoffset=0    xadvance=16     page=0  chnl=0 
char id=105   x=137     y=0     width=11     height=18     xoffset=-2     yoffset=-3    xadvance=11     page=0  chnl=0 
char id=103   x=148     y=0     width=15     height=18     xoffset=-1     yoffset=0    xadvance=16     page=0  chnl=0 
char id=42   x=163     y=0     width=14     height=17     xoffset=-2     yoffset=-2    xadvance=14     page=0  chnl=0 
char id=38   x=177     y=0     width=15     height=17     xoffset=-1     yoffset=-2    xadvance=16     page=0  chnl=0 
char id=37   x=192     y=0     width=17     height=17     xoffset=-2     yoffset=-2    xadvance=17     page=0  chnl=0 
char id=36   x=209     y=0     width=14     height=17     xoffset=-2     yoffset=-2    xadvance=14     page=0  chnl=0 
char id=41   x=223     y=0     width=11     height=17     xoffset=-2     yoffset=-2    xadvance=11     page=0  chnl=0 
char id=40   x=234     y=0     width=11     height=17     xoffset=-2     yoffset=-2    xadvance=11     page=0  chnl=0 
char id=33   x=245     y=0     width=11     height=17     xoffset=-2     yoffset=-2    xadvance=11     page=0  chnl=0 
char id=48   x=256     y=0     width=16     height=17     xoffset=-1     yoffset=-2    xadvance=17     page=0  chnl=0 
char id=57   x=272     y=0     width=17     height=17     xoffset=-2     yoffset=-2    xadvance=17     page=0  chnl=0 
char id=56   x=289     y=0     width=17     height=17     xoffset=-2     yoffset=-2    xadvance=17     page=0  chnl=0 
char id=55   x=306     y=0     width=17     height=17     xoffset=-2     yoffset=-2    xadvance=17     page=0  chnl=0 
char id=54   x=323     y=0     width=17     height=17     xoffset=-2     yoffset=-2    xadvance=17     page=0  chnl=0 
char id=53   x=340     y=0     width=17     height=17     xoffset=-2     yoffset=-2    xadvance=17     page=0  chnl=0 
char id=52   x=357     y=0     width=17     height=17     xoffset=-1     yoffset=-2    xadvance=17     page=0  chnl=0 
char id=51   x=374     y=0     width=17     height=17     xoffset=-2     yoffset=-2    xadvance=17     page=0  chnl=0 
char id=50   x=391     y=0     width=17     height=17     xoffset=-2     yoffset=-2    xadvance=17     page=0  chnl=0 
char id=49   x=408     y=0     width=15     height=17     xoffset=-1     yoffset=-2    xadvance=16     page=0  chnl=0 
char id=116   x=423     y=0     width=14     height=17     xoffset=-2     yoffset=-2    xadvance=14     page=0  chnl=0 
char id=108   x=437     y=0     width=11     height=17     xoffset=-2     yoffset=-2    xadvance=11     page=0  chnl=0 
char id=107   x=448     y=0     width=15     height=17     xoffset=-1     yoffset=-2    xadvance=16     page=0  chnl=0 
char id=104   x=463     y=0     width=15     height=17     xoffset=-1     yoffset=-2    xadvance=16     page=0  chnl=0 
char id=102   x=478     y=0     width=14     height=17     xoffset=-2     yoffset=-2    xadvance=14     page=0  chnl=0 
char id=100   x=492     y=0     width=15     height=17     xoffset=-1     yoffset=-2    xadvance=16     page=0  chnl=0 
char id=98   x=0     y=21     width=15     height=17     xoffset=-1     yoffset=-2    xadvance=16     page=0  chnl=0 
char id=90   x=15     y=21     width=17     height=17     xoffset=-2     yoffset=-2    xadvance=17     page=0  chnl=0 
char id=89   x=32     y=21     width=15     height=17     xoffset=-1     yoffset=-2    xadvance=16     page=0  chnl=0 
char id=88   x=47     y=21     width=17     height=17     xoffset=-2     yoffset=-2    xadvance=17     page=0  chnl=0 
char id=87   x=64     y=21     width=16     height=17     xoffset=-1     yoffset=-2    xadvance=17     page=0  chnl=0 
char id=86   x=80     y=21     width=16     height=17     xoffset=-1     yoffset=-2    xadvance=17     page=0  chnl=0 
char id=85   x=96     y=21     width=17     height=17     xoffset=-2     yoffset=-2    xadvance=17     page=0  chnl=0 
char id=84   x=113     y=21     width=15     height=17     xoffset=-1     yoffset=-2    xadvance=16     page=0  chnl=0 
char id=83   x=128     y=21     width=17     height=17     xoffset=-2     yoffset=-2    xadvance=17     page=0  chnl=0 
char id=82   x=145     y=21     width=17     height=17     xoffset=-2     yoffset=-2    xadvance=17     page=0  chnl=0 
char id=81   x=162     y=21     width=17     height=17     xoffset=-2     yoffset=-2    xadvance=17     page=0  chnl=0 
char id=80   x=179     y=21     width=17     height=17     xoffset=-2     yoffset=-2    xadvance=17     page=0  chnl=0 
char id=79   x=196     y=21     width=17     height=17     xoffset=-2     yoffset=-2    xadvance=17     page=0  chnl=0 
char id=78   x=213     y=21     width=17     height=17     xoffset=-2     yoffset=-2    xadvance=17     page=0  chnl=0 
char id=77   x=230     y=21     width=16     height=17     xoffset=-1     yoffset=-2    xadvance=17     page=0  chnl=0 
char id=76   x=246     y=21     width=17     height=17     xoffset=-1     yoffset=-2    xadvance=17     page=0  chnl=0 
char id=75   x=263     y=21     width=17     height=17     xoffset=-2     yoffset=-2    xadvance=17     page=0  chnl=0 
char id=74   x=280     y=21     width=17     height=17     xoffset=-2     yoffset=-2    xadvance=17     page=0  chnl=0 
char id=73   x=297     y=21     width=15     height=17     xoffset=-1     yoffset=-2    xadvance=16     page=0  chnl=0 
char id=72   x=312     y=21     width=17     height=17     xoffset=-2     yoffset=-2    xadvance=17     page=0  chnl=0 
char id=71   x=329     y=21     width=17     height=17     xoffset=-2     yoffset=-2    xadvance=17     page=0  chnl=0 
char id=70   x=346     y=21     width=17     height=17     xoffset=-1     yoffset=-2    xadvance=17     page=0  chnl=0 
char id=69   x=363     y=21     width=17     height=17     xoffset=-1     yoffset=-2    xadvance=17     page=0  chnl=0 
char id=68   x=380     y=21     width=17     height=17     xoffset=-2     yoffset=-2    xadvance=17     page=0  chnl=0 
char id=67   x=397     y=21     width=17     height=17     xoffset=-2     yoffset=-2    xadvance=17     page=0  chnl=0 
char id=66   x=414     y=21     width=17     height=17     xoffset=-2     yoffset=-2    xadvance=17     page=0  chnl=0 
char id=65   x=431     y=21     width=17     height=17     xoffset=-2     yoffset=-2    xadvance=17     page=0  chnl=0 
char id=59   x=448     y=21     width=11     height=16     xoffset=-2     yoffset=1    xadvance=11     page=0  chnl=0 
char id=122   x=459     y=21     width=15     height=15     xoffset=-1     yoffset=0    xadvance=16     page=0  chnl=0 
char id=120   x=474     y=21     width=15     height=15     xoffset=-1     yoffset=0    xadvance=16     page=0  chnl=0 
char id=119   x=489     y=21     width=17     height=15     xoffset=-2     yoffset=0    xadvance=17     page=0  chnl=0 
char id=118   x=0     y=38     width=15     height=15     xoffset=-1     yoffset=0    xadvance=16     page=0  chnl=0 
char id=117   x=15     y=38     width=15     height=15     xoffset=-1     yoffset=0    xadvance=16     page=0  chnl=0 
char id=115   x=30     y=38     width=15     height=15     xoffset=-1     yoffset=0    xadvance=16     page=0  chnl=0 
char id=114   x=45     y=38     width=15     height=15     xoffset=-1     yoffset=0    xadvance=16     page=0  chnl=0 
char id=111   x=60     y=38     width=15     height=15     xoffset=-1     yoffset=0    xadvance=16     page=0  chnl=0 
char id=110   x=75     y=38     width=15     height=15     xoffset=-1     yoffset=0    xadvance=16     page=0  chnl=0 
char id=109   x=90     y=38     width=16     height=15     xoffset=-1     yoffset=0    xadvance=17     page=0  chnl=0 
char id=101   x=106     y=38     width=15     height=15     xoffset=-1     yoffset=0    xadvance=16     page=0  chnl=0 
char id=99   x=121     y=38     width=15     height=15     xoffset=-1     yoffset=0    xadvance=16     page=0  chnl=0 
char id=97   x=136     y=38     width=15     height=15     xoffset=-1     yoffset=0    xadvance=16     page=0  chnl=0 
char id=58   x=151     y=38     width=9     height=14     xoffset=-1     yoffset=1    xadvance=10     page=0  chnl=0 
char id=35   x=160     y=38     width=14     height=13     xoffset=-1     yoffset=0    xadvance=14     page=0  chnl=0 
char id=61   x=174     y=38     width=14     height=13     xoffset=-1     yoffset=0    xadvance=14     page=0  chnl=0 
char id=43   x=188     y=38     width=14     height=13     xoffset=-2     yoffset=0    xadvance=14     page=0  chnl=0 
char id=92   x=202     y=38     width=14     height=13     xoffset=-1     yoffset=0    xadvance=16     page=0  chnl=0 
char id=47   x=216     y=38     width=14     height=13     xoffset=-1     yoffset=0    xadvance=16     page=0  chnl=0 
char id=62   x=230     y=38     width=12     height=13     xoffset=-1     yoffset=0    xadvance=13     page=0  chnl=0 
char id=60   x=242     y=38     width=12     height=13     xoffset=-1     yoffset=0    xadvance=13     page=0  chnl=0 
char id=94   x=254     y=38     width=15     height=11     xoffset=-1     yoffset=-2    xadvance=16     page=0  chnl=0 
char id=44   x=269     y=38     width=11     height=11     xoffset=-2     yoffset=6    xadvance=11     page=0  chnl=0 
char id=126   x=280     y=38     width=17     height=9     xoffset=-2     yoffset=1    xadvance=17     page=0  chnl=0 
char id=46   x=297     y=38     width=9     height=9     xoffset=-1     yoffset=6    xadvance=10     page=0  chnl=0 
char id=39   x=306     y=38     width=9     height=9     xoffset=-1     yoffset=-2    xadvance=10     page=0  chnl=0 
char id=96   x=315     y=38     width=12     height=9     xoffset=-1     yoffset=-2    xadvance=13     page=0  chnl=0 
char id=34   x=327     y=38     width=15     height=9     xoffset=-1     yoffset=-2    xadvance=16     page=0  chnl=0 
char id=95   x=342     y=38     width=17     height=8     xoffset=-2     yoffset=9    xadvance=16     page=0  chnl=0 
char id=45   x=359     y=38     width=14     height=7     xoffset=-1     yoffset=3    xadvance=14     page=0  chnl=0 
